안지석 업무 - KIER기술정책플랫폼
…
데이터 출처: KESIS, KEPCO

Code

library(tidyverse)
library(readxl)

KESIS_elec_consumption_raw<- read_excel("KESIS_지역별_산업분류별_전력소비량_extracted.xlsx") %>% 
  pivot_longer( -c('region', 'type'), names_to="year", values_to="GWh") %>% 
  mutate(GWh =round(GWh,1))

KESIS_elec_consumption_raw

# A tibble: 3,264 × 4
   region type   year    GWh
   <chr>  <chr>  <chr> <dbl>
 1 서울   가정용 1990  5183.
 2 서울   가정용 1991  5498.
 3 서울   가정용 1992  5976.
 4 서울   가정용 1993  6448.
 5 서울   가정용 1994  7116 
 6 서울   가정용 1995  7299.
 7 서울   가정용 1996  7687.
 8 서울   가정용 1997  8069.
 9 서울   가정용 1998  8041.
10 서울   가정용 1999  8518.
# ℹ 3,254 more rows
…
